%YAML 1.1
%TAG !u! tag:unity3d.com,2011:
--- !u!78 &1
TagManager:
  serializedVersion: 2
  tags:
  - Fire
  - Bomb
  - Item
  - Wall
  - Brick
  layers:
  - Default
  - TransparentFX
  - Ignore Raycast
  - 
  - Water
  - UI
  - 
  - 
  - 
  - 
  - 
  - 
  - 
  - 
  - 
  - 
  - 
  - 
  - 
  - 
  - 
  - 
  - 
  - 
  - 
  - 
  - 
  - 
  - 
  - 
  - 
  - 
  m_SortingLayers:
  - name: Default
    uniqueID: 0
    locked: 0
  - name: Background
    uniqueID: 738048293
    locked: 0
  - name: Stage
    uniqueID: 3480813315
    locked: 0
  - name: Bricks
    uniqueID: 3424539547
    locked: 0
  - name: Items
    uniqueID: 770061669
    locked: 0
  - name: Player
    uniqueID: 3969234661
    locked: 0
  - name: Air
    uniqueID: 1703048661
    locked: 0
